﻿T,trials,t1,t2,t3,t4,t5,at,logat,,p1,p2,p3,p4,p5,p6,ap,logap,,nf1,nf2,nf3,anf,loganf
,1,20.54545455,58.22222222,27.72727273,42.32323232,16.07070707,32.97777778,1.518221387,,5.090909091,23.42424242,56.2020202,59.47474747,24.39393939,10.53535354,29.85353535,1.474995769,,64.06060606,4.747474747,39.73737374,36.18181818,1.558490387
,2,76.12121212,1.878787879,10.21212121,0.323232323,6.575757576,19.02222222,1.279261251,,8.575757576,8.141414141,34.84848485,16.83838384,8.303030303,46.88888889,20.5993266,1.313853023,,54.97979798,50.17171717,11.83838384,38.996633,1.591027111
,3,0.777777778,2.696969697,2.292929293,8.212121212,9.363636364,4.668686869,0.669194747,,3.606060606,10.62626263,48.92929293,28.11111111,0.707070707,74.03030303,27.66835017,1.441983263,,84.36363636,6.202020202,20.02020202,36.86195286,1.566578339
,4,59.51515152,7.01010101,7.545454545,2.131313131,16.74747475,18.58989899,1.26927703,,9.96969697,11.36363636,18.33333333,8.363636364,22.83838384,28.76767677,16.60606061,1.220266619,,48.67676768,25.7979798,24.23232323,32.9023569,1.517227009
,5,8.777777778,0.656565657,7.060606061,21.45454545,8.414141414,9.272727272,0.967207487,,16.52525253,76.57575758,2.737373737,8.95959596,6.777777778,79.3030303,31.81313131,1.502606418,,6.242424242,21.32323232,17.93939394,15.16835017,1.180938346
,6,15.34343434,5.363636364,1.232323232,51.17171717,1.121212121,14.84646465,1.171623048,,37.23232323,0.111111111,11.33333333,6.060606061,22.48484848,17.29292929,15.75252525,1.197350184,,2.97979798,68.5959596,1.484848485,24.35353536,1.386562016
,7,12.14141414,12.17171717,8.050505051,29.68686869,1.424242424,12.6949495,1.103630977,,6.555555556,14.77777778,33.06060606,18.48484848,61.91919192,50.24242424,30.84006734,1.489115318,,21.35353535,79.7979798,13.71717172,38.28956229,1.583080402
,8,1.646464646,3.838383838,5.676767677,50.62626263,6.03030303,13.56363636,1.132376138,,11.81818182,9.898989899,9.222222222,7.595959596,46.90909091,42.34343434,21.2979798,1.328338411,,14.70707071,24.28282828,12.43434343,17.14141414,1.234046648
,9,7.242424242,4.474747475,6,50.57575758,9.808080808,15.62020202,1.193686646,,4.050505051,9.161616162,18.27272727,23.5959596,9.464646465,11.86868687,12.73569024,1.105022488,,7.383838384,1.111111111,8.434343434,5.643097643,0.751517565
,10,41.68686869,4.585858586,6.636363636,34.82828283,3.707070707,18.28888889,1.262187321,,17.64646465,9.171717172,10.28282828,23.74747475,10.11111111,27.49494949,16.40909091,1.215084521,,37.1010101,11.68686869,25.6969697,24.82828283,1.394946684
,11,17.1010101,17.78787879,3.96969697,7.919191919,3.070707071,9.96969697,0.998681958,,1.727272727,4.818181818,31.58585859,14,6.383838384,7.939393939,11.07575758,1.044373442,,10.5959596,23.5959596,11.53535354,15.24242425,1.183054045
,12,2.454545455,9.535353535,14.94949495,4.262626263,4.292929293,7.098989899,0.851196558,,6.676767677,10.92929293,65.71717172,11.94949495,4.777777778,3.666666667,17.28619529,1.237699415,,6.919191919,6.070707071,12.13131313,8.373737373,0.922919336
,13,9.454545455,51.27272727,4,14.72727273,3.121212121,16.51515152,1.217882562,,1.111111111,12.11111111,39.56565657,20.56565657,6.151515152,50.31313131,21.63636364,1.335184272,,11.37373737,4.757575758,17.33333333,11.15488215,1.047464986
,14,13.57575758,59.50505051,5.919191919,7.070707071,9.494949495,19.11313132,1.281331844,,3.949494949,1.929292929,16.82828283,31.66666667,0.505050505,38.90909091,15.63131313,1.193995463,,3.242424242,6.363636364,0.060606061,3.222222222,0.508155488
,15,6.505050505,4.858585859,5.787878788,0.272727273,4,4.284848485,0.63193547,,5.696969697,10.78787879,11.13131313,5.151515152,12.09090909,69.92929293,19.13131313,1.28174478,,3.303030303,45.61616162,13.81818182,20.91245791,1.32040508
,16,13.80808081,9.636363636,1.818181818,2.757575758,2.929292929,6.18989899,0.791683562,,5,0.181818182,3.797979798,7.03030303,44.74747475,51.04040404,18.63299663,1.270282705,,20.51515152,4,2.141414141,8.885521887,0.948682941
,17,0.696969697,5.060606061,4.070707071,2.838383838,0.282828283,2.58989899,0.413282826,,30.42424242,3.04040404,26.47474747,31.78787879,21.26262626,84.77777778,32.96127946,1.518004061,,24.94949495,3.151515152,9.343434343,12.48148148,1.096266137
,18,8.898989899,1.04040404,0,0.747474747,6.96969697,3.531313131,0.547936229,,3.818181818,0.242424242,1.161616162,16.50505051,4.424242424,32.54545455,9.782828284,0.990464431,,49.26262626,4.141414141,22.14141414,25.18181818,1.401087084
,19,1.292929293,41.46464646,10.05050505,10.60606061,0.050505051,12.69292929,1.103561861,,4.464646465,8.818181818,7.282828283,4.080808081,0.818181818,48.84848485,12.38552189,1.092914311,,9.181818182,15.46464646,11.05050505,11.8989899,1.075510096
,20,16.78787879,9.878787879,11.18181818,1.474747475,7.676767677,9.4,0.973127854,,2.818181818,12.25252525,9.454545455,14.42424242,35.09090909,80.01010101,25.67508417,1.409511876,,4.878787879,38.11111111,16.13131313,19.70707071,1.294622075
,21,35.38383838,21.94949495,2.272727273,11.58585859,9.636363636,16.16565657,1.208593348,,5.707070707,2.717171717,26.91919192,8.838383838,71.61616162,87.74747475,33.92424243,1.530510158,,9.505050505,19.74747475,6.292929293,11.84848485,1.073662818
,22,9.939393939,10.76767677,35.18181818,2.595959596,0.565656566,11.81010101,1.072253612,,4.171717172,10.25252525,10.36363636,7.313131313,38.7979798,81.46464646,25.39393939,1.404730079,,5.141414141,10.28282828,5.525252525,6.983164982,0.844052303
,23,6.171717172,1.04040404,8.767676768,5.262626263,1.515151515,4.551515152,0.658155993,,29.65656566,6.414141414,12.61616162,49.86868687,12.62626263,87.51515152,33.11616162,1.520039993,,18.18181818,13.36363636,6.04040404,12.52861953,1.097903221
,24,16.53535354,2.878787879,6.656565657,8.474747475,2.505050505,7.410101011,0.869824128,,2.242424242,14.78787879,3.656565657,2.424242424,1.373737374,78.41414141,17.14983165,1.234259861,,10.25252525,24.34343434,9.333333333,14.64309764,1.165632958
,25,1.787878788,0.464646465,11.70707071,5.888888889,0.777777778,4.125252526,0.615450539,,4.424242424,11.48484848,5.333333333,24.03030303,13.14141414,9.080808081,11.24915825,1.051120026,,2.434343434,7.080808081,9.04040404,6.185185185,0.791352707
,26,25.15151515,58.73737374,1.535353535,4.262626263,7.757575758,19.48888889,1.28978708,,8.191919192,14.78787879,44.29292929,8.747474747,4.707070707,10.12121212,15.14141414,1.180166438,,1.464646465,1.414141414,41.77777778,14.88552189,1.172764066
,27,9.333333333,5.515151515,10.86868687,9.363636364,13.88888889,9.793939394,0.990957412,,0.95959596,2.878787879,7.636363636,10.37373737,2.333333333,80.8989899,17.51346801,1.243372153,,0.424242424,26.66666667,14.18181818,13.75757576,1.138541913
,28,0.636363636,3.171717172,6.232323232,14.18181818,0.242424242,4.892929292,0.68956894,,5.696969697,6.323232323,11.62626263,2.898989899,5.363636364,68.81818182,16.78787879,1.224995825,,37.01010101,15.68686869,32.97979798,28.55892256,1.455741819
,29,23.47474747,7.303030303,11.1010101,5.525252525,16.67676768,12.81616162,1.107757975,,2.313131313,2.202020202,26.64646465,12.85858586,20.2020202,22.71717172,14.48989899,1.161065358,,16.15151515,18.33333333,9.727272727,14.73737374,1.168420097
,30,9.090909091,4.626262626,11.49494949,20.06060606,8.848484848,10.82424242,1.03439751,,9.949494949,22.82828283,15.54545455,20.81818182,17.45454545,44.43434343,21.83838384,1.339220495,,1.767676768,12.70707071,0.111111111,4.861952863,0.686810744
,31,25.55555556,33.03030303,1.656565657,5.151515152,4.232323232,13.92525253,1.14380308,,12.65656566,2.696969697,4.121212121,49.68686869,2.767676768,10.77777778,13.78451179,1.139391389,,61.71717172,0.444444444,11.87878788,24.68013468,1.392347525
,32,8.090909091,10.92929293,5.707070707,30.45454545,0.323232323,11.1010101,1.045362498,,3.98989899,2.161616162,16.98989899,6.080808081,10.45454545,10.04040404,8.286195286,0.918355164,,1.464646465,1.585858586,23.01010101,8.686868687,0.938863257
,33,13.28282828,1.262626263,11.64646465,8.707070707,12.6969697,9.51919192,0.978600083,,2.262626263,21.32323232,34.74747475,13.57575758,26.36363636,0.494949495,16.46127946,1.216463588,,15.29292929,3.787878788,23.52525253,14.2020202,1.152350126
,34,22.64646465,13.32323232,5.454545455,3.98989899,13.7979798,11.84242424,1.073440615,,12.50505051,4.606060606,2.616161616,14.35353535,26,27.87878788,14.65993266,1.166131975,,0.545454545,5.818181818,8.242424242,4.868686868,0.687411844
,35,17.74747475,4.555555556,2.656565657,1.414141414,2.141414141,5.703030304,0.756105679,,2.98989899,2.080808081,14.31313131,3.090909091,17.23232323,6.202020202,7.651515151,0.883747443,,10.83838384,23.25252525,12.43434343,15.50841751,1.190567484
,36,14.05050505,7.080808081,2.111111111,3.97979798,17.12121212,8.868686868,0.947859321,,11.96969697,28.34343434,9.151515152,1.575757576,2.090909091,17.74747475,11.81313131,1.072365031,,2.929292929,20.6969697,41.97979798,21.86868687,1.339822706
,37,10.74747475,0.292929293,3.131313131,0.707070707,18.51515152,6.67878788,0.82469765,,8.727272727,5.333333333,15.88888889,2.787878788,4.313131313,18.08080808,9.188552189,0.963247086,,29.88888889,16.22222222,20.85858586,22.32323232,1.348757079
,38,0.777777778,8.292929293,9.939393939,5.272727273,16.93939394,8.244444445,0.916161396,,0.535353535,15.82828283,46.98989899,32.32323232,6.767676768,21.6969697,20.69023569,1.315765438,,10.43434343,33.51515152,11.75757576,18.56902357,1.268789067
,39,5.787878788,16.01010101,19.23232323,11.26262626,5.333333333,11.52525252,1.06165045,,12.57575758,5.818181818,8.191919192,16.06060606,8.575757576,9.313131313,10.08922559,1.003857833,,14.26262626,12.22222222,14.5959596,13.69360269,1.136517723
,40,4.262626263,38.16161616,0.131313131,5.303030303,20.28282828,13.62828283,1.134441138,,25.77777778,2.111111111,8.808080808,23.53535354,28.11111111,66.07070707,25.73569024,1.410535821,,11.93939394,27.56565657,51.58585859,30.36363637,1.482353782
,41,9.404040404,5.393939394,8.818181818,0.151515152,63.13131313,17.37979798,1.240044724,,61.50505051,14.24242424,18.76767677,9.161616162,5.323232323,4.333333333,18.88888889,1.276206412,,41.07070707,6.939393939,37.66666667,28.55892256,1.455741819
,42,72.18181818,7.161616162,89.85858586,15.19191919,13.70707071,39.62020202,1.597916686,,2.545454545,2.686868687,34.90909091,8.484848485,1.464646465,3.818181818,8.984848485,0.953510758,,9.333333333,2.444444444,3.858585859,5.212121212,0.717014507
,43,5.111111111,1.222222222,20.29292929,10.78787879,3.96969697,8.276767677,0.917860765,,5.494949495,17.73737374,0.141414141,2.98989899,8.565656566,22.82828283,9.626262627,0.983457706,,9.050505051,1.565656566,6.01010101,5.542087542,0.743673382
,44,2.818181818,11.57575758,9.808080808,10.5959596,12.03030303,9.365656567,0.971538228,,6.292929293,1.04040404,7.737373737,6.252525253,3.151515152,7.535353535,5.335016835,0.727135794,,1.151515152,14.02020202,0.393939394,5.188552189,0.715046189
,45,7.878787879,20.11111111,7.606060606,14.3030303,4.303030303,10.84040404,1.035045469,,8.222222222,11.84848485,3.636363636,4.505050505,8.464646465,5.626262626,7.050505051,0.848220228,,80.80808081,3.454545455,1.878787879,28.71380471,1.458090742
,46,23.68686869,7.757575758,0.212121212,4.595959596,6.474747475,8.545454546,0.931735168,,1.484848485,1.454545455,2.474747475,4.535353535,2.555555556,12.18181818,4.114478114,0.614314757,,62.72727273,3.646464646,4.464646465,23.61279461,1.37314739
,47,3.444444444,5.131313131,0.787878788,10.45454545,3.707070707,4.705050504,0.67256429,,0.262626263,29.60606061,30,15.54545455,0.111111111,10.36363636,14.31481482,1.155785734,,11.24242424,14.42424242,20.83838384,15.5016835,1.190378866
,48,13.21212121,2.494949495,1.363636364,2.070707071,5.363636364,4.901010101,0.690285598,,0.595959596,1,28.51515152,9.333333333,3.060606061,5.777777778,8.047138048,0.905641452,,2.161616162,2.060606061,8,4.074074074,0.610028921
,49,18.44444444,13.51515152,2.222222222,8.303030303,13.72727273,11.24242424,1.05085997,,9.474747475,2.282828283,17.54545455,14.72727273,13.91919192,6.757575758,10.78451179,1.03280049,,24.68686869,31.06060606,3.555555556,19.76767677,1.295955631
,50,5.525252525,11.33333333,1.04040404,10.53535354,12.1010101,8.107070707,0.908863961,,6,7.797979798,19.98989899,4.141414141,6.212121212,4.070707071,8.035353535,0.905004989,,11.16161616,1.515151515,0.505050505,4.393939393,0.642854062
,51,4.656565657,5.434343434,9.434343434,79.31313131,15.1010101,22.78787879,1.357703901,,5.090909091,6.04040404,5.96969697,16.68686869,17.63636364,50.13131313,16.92592593,1.228552436,,4.777777778,6.888888889,2.262626263,4.643097643,0.666807817
,52,3.202020202,8.747474747,5.555555556,24.08080808,0.515151515,8.42020202,0.925322511,,6.272727273,12.95959596,14.63636364,33.81818182,3.636363636,13.31313131,14.10606061,1.149405746,,2.717171717,7.02020202,0.919191919,3.552188552,0.55049601
,53,11,2.838383838,2.888888889,12.85858586,2.666666667,6.450505051,0.80959372,,23.24242424,0.262626263,9.171717172,1.161616162,2.060606061,2.232323232,6.355218855,0.803130511,,9.484848485,1.01010101,6,5.498316498,0.740229735
,54,1.98989899,4.878787879,1.919191919,72.66666667,5.303030303,17.35151515,1.239337404,,37.8989899,3.242424242,15.55555556,19.4040404,0.454545455,4.636363636,13.53198653,1.131361557,,13.77777778,17.41414141,5.535353535,12.24242424,1.087867425
,55,3.212121212,3.555555556,4.414141414,10,16.31313131,7.498989898,0.875002769,,2.515151515,1.202020202,4.929292929,16.95959596,1.424242424,28.86868687,9.316498317,0.96925271,,8.505050505,1.434343434,16.25252525,8.73063973,0.941046067
,56,11.14141414,10.63636364,18.60606061,7.585858586,72.63636364,24.12121212,1.382399128,,9.04040404,40.35353535,25.33333333,5.464646465,20.57575758,2.282828283,17.17508417,1.234898874,,7.111111111,3.111111111,17.4040404,9.208754207,0.964200881
,57,4.202020202,5.383838384,11.97979798,10.93939394,7.949494949,8.090909091,0.907997321,,2.050505051,15.95959596,0.252525253,3.191919192,12.22222222,6.97979798,6.776094276,0.83097944,,22.28282828,13.23232323,3,12.83838384,1.108510356
,58,9.454545455,17.71717172,3.424242424,8.03030303,0.727272727,7.870707071,0.896013749,,1.626262626,0.373737374,22.86868687,7.04040404,8.595959596,2.757575758,7.210437711,0.857961629,,35.36363636,0.686868687,12.91919192,16.32323232,1.212806162
,59,14.58585859,3.929292929,14.66666667,26.8989899,9.848484848,13.98585859,1.145689133,,18.11111111,0.070707071,13.12121212,0.626262626,0.444444444,10.06060606,7.072390572,0.849566237,,21.97979798,6.434343434,8.111111111,12.17508418,1.085471973
,60,4.737373737,13.81818182,4.717171717,7.515151515,15.07070707,9.171717172,0.962450654,,25.71717172,1,16.23232323,16.15151515,7.939393939,10.64646465,12.94781145,1.112196366,,0.929292929,14.04040404,24.87878788,13.28282828,1.123290558
,61,17.01010101,5.121212121,26.77777778,7.393939394,5.575757576,12.37575758,1.092571794,,1,34.13131313,13.58585859,0.666666667,5.878787879,2.838383838,9.683501684,0.986032432,,6.595959596,26.14141414,17.17171717,16.63636364,1.221058405
,62,14.37373737,0.95959596,13.96969697,11.93939394,3.646464646,8.977777777,0.953168851,,2.767676768,50.4040404,4.242424242,10.33333333,0.545454545,13.58585859,13.64646465,1.135020155,,3.696969697,2.232323232,11.3030303,5.744107743,0.759222577
,63,7.515151515,13.32323232,43.15151515,8.929292929,9.909090909,16.56565656,1.219208653,,1.01010101,2.515151515,8.606060606,20.70707071,2.828282828,9.303030303,7.494949495,0.874768711,,7.303030303,2.616161616,7.04040404,5.653198653,0.752294247
,64,13,11.01010101,27.07070707,0.929292929,2.474747475,10.8969697,1.037305743,,7.141414141,36.96969697,24.97979798,11.07070707,3.131313131,37.5959596,20.14814815,1.304235136,,0.565656566,6.343434343,13.15151515,6.686868686,0.825222795
,65,2.636363636,3.161616162,5.272727273,0.919191919,15.33333333,5.464646464,0.73756207,,9.262626263,2.111111111,12.29292929,7.525252525,2.313131313,1.060606061,5.760942761,0.76049356,,1.070707071,2.292929293,36.05050505,13.13804714,1.118530816
,66,6.696969697,7.363636364,1,7.414141414,18.92929293,8.280808081,0.918072719,,2.232323232,1.333333333,4.303030303,1.282828283,6.616161616,7.272727273,3.84006734,0.58433884,,17.48484848,4.575757576,36.14141414,19.4006734,1.287816805
,67,18.60606061,7.050505051,1.272727273,57.29292929,26.7979798,22.2040404,1.346432009,,4.222222222,7.363636364,19.37373737,11.50505051,1.858585859,20.57575758,10.81649832,1.034086687,,6,12.47474747,24.66666667,14.38047138,1.157773122
,68,7.01010101,10.93939394,1.131313131,21.41414141,18.38383838,11.77575757,1.070988856,,2.636363636,12.46464646,20.67676768,0.242424242,15.67676768,5.03030303,9.454545455,0.975640654,,17.05050505,9.767676768,66.11111111,30.97643098,1.491031378
,69,11.61616162,4.131313131,3.373737374,11,14.14141414,8.852525253,0.947067174,,8.707070707,10.04040404,3.383838384,30.55555556,4.090909091,4.767676768,10.25757576,1.011044733,,3.313131313,15.48484848,8.888888889,9.228956227,0.965152586
,70,12.73737374,8.919191919,8.04040404,75.02020202,12.23232323,23.38989899,1.369028346,,17,3.060606061,25.02020202,0.212121212,9.161616162,1.474747475,9.321548822,0.969488079,,5.636363636,10.43434343,7.97979798,8.016835015,0.904002946
,71,6.464646465,18.32323232,1.484848485,10.23232323,17.08080808,10.71717172,1.030080189,,11.45454545,0.202020202,39.32323232,2.474747475,1.404040404,51.08080808,17.65656566,1.246906234,,6.303030303,4.888888889,12.01010101,7.734006734,0.888404546
,72,7.181818182,6.333333333,41.3030303,76.70707071,18.2020202,29.94545455,1.47633091,,33.05050505,19.57575758,12.67676768,20.23232323,0.050505051,26.4040404,18.66498317,1.271027603,,26.57575758,5.929292929,2.404040404,11.63636364,1.065817285
,73,6.545454545,0.424242424,2.646464646,0.98989899,20.52525253,6.226262627,0.794227436,,6.393939394,5.131313131,5.727272727,9.121212121,1.404040404,7.848484848,5.937710438,0.773619015,,88.11111111,16.32323232,2.060606061,35.4983165,1.550207757
,74,10.46464646,3.090909091,16.61616162,1.282828283,9.767676768,8.244444444,0.916161396,,26.95959596,9.181818182,2.292929293,9.303030303,10.54545455,6.505050505,10.7979798,1.033342511,,2.686868687,10.47474747,14.83838384,9.333333332,0.970036777
,75,3.525252525,3.393939394,3.444444444,2.242424242,6.98989899,3.919191919,0.593196531,,14.23232323,2.191919192,17.45454545,21.71717172,7.373737374,2.808080808,10.96296296,1.039927947,,46.3030303,0.050505051,37.47474747,27.94276094,1.446269315
,76,12.95959596,1.292929293,14.31313131,87.86868687,11.19191919,25.52525252,1.406970047,,16.23232323,1.383838384,9.595959596,17.6969697,2.555555556,35.55555556,13.83670034,1.141032536,,1.646464646,3.555555556,5.313131313,3.505050505,0.54469428
,77,4.515151515,24.61616162,71.34343434,8.919191919,6.04040404,23.08686869,1.363365033,,9.656565657,4.565656566,0.646464646,13.34343434,5.202020202,6.96969697,6.73063973,0.828056345,,88.86868687,11.6969697,1.878787879,34.14814815,1.533367157
,78,1.888888889,0.95959596,52.52525253,5.282828283,19.54545455,16.04040404,1.205215304,,4.313131313,16.02020202,6.252525253,36.26262626,10.64646465,33.23232323,17.78787879,1.250124161,,28.11111111,11.75757576,0.161616162,13.34343434,1.125267623
,79,6.101010101,0.141414141,20.29292929,50.91919192,11.55555556,17.8020202,1.25046929,,19.39393939,11.84848485,26.21212121,6.02020202,8.676767677,26.66666667,16.46969697,1.216685609,,68.90909091,12.42424242,2.888888889,28.07407407,1.448305441
,80,11.3030303,6.212121212,0.484848485,5.868686869,43.33333333,13.44040404,1.128412324,,10.42424242,15.46464646,4.616161616,14.49494949,2.575757576,13.82828283,10.23400673,1.010045698,,23.33333333,0.494949495,68.38383838,30.73737374,1.487666758
,81,8.151515152,21.5959596,1.727272727,3.03030303,1.595959596,7.220202021,0.858549349,,6.121212121,11.26262626,1.818181818,16.54545455,11.64646465,0.626262626,8.003367004,0.903272732,,30.15151515,23.90909091,1.545454545,18.53535354,1.268000874
,82,0.575757576,2.535353535,7.787878788,12.02020202,12.92929293,7.16969697,0.8555008,,3.060606061,15.21212121,20.03030303,17.48484848,7.141414141,19.51515152,13.74074074,1.138010145,,2.505050505,6.464646465,4.848484848,4.606060606,0.663329648
,83,5.474747475,9.444444444,67.86868687,24.44444444,18.14141414,25.07474747,1.399236568,,45.60606061,2.666666667,35.82828283,44.13131313,5.767676768,10.29292929,24.04882155,1.3810938,,5.080808081,17.63636364,14.5959596,12.43771044,1.094740442
,84,8.414141414,6.252525253,4.515151515,1.151515152,8.454545455,5.757575758,0.760239661,,15.3030303,10.83838384,43.31313131,20.70707071,13.65656566,10,18.96969697,1.278060393,,34.88888889,12.61616162,1.535353535,16.34680135,1.213432785
,85,9.343434343,5.818181818,4.585858586,1.515151515,9.464646465,6.145454545,0.788554011,,15.22222222,6.636363636,15.63636364,8.252525253,23.90909091,2.474747475,12.02188552,1.079972588,,4.878787879,2.111111111,6.737373737,4.575757576,0.660463007
,86,6.02020202,2.474747475,17.71717172,2.292929293,0.121212121,5.725252526,0.757794647,,19.08080808,15.27272727,21.41414141,12.88888889,8.03030303,6.323232323,13.83501683,1.140979692,,9.757575758,4.686868687,1.282828283,5.242424243,0.719532163
,87,20.57575758,18.87878788,39.11111111,2.191919192,9.727272727,18.0969697,1.257605859,,11.31313131,26.08080808,26.23232323,5.585858586,0.222222222,5.191919192,12.43771044,1.094740442,,4.323232323,24.19191919,6.02020202,11.51178451,1.061142651
,88,10.63636364,1.656565657,83.93939394,50,15.04040404,32.25454546,1.508590926,,7.595959596,6.161616162,15.53535354,13.47474747,0.191919192,26.04040404,11.5,1.06069784,,6.141414141,9.545454545,72.50505051,29.3973064,1.468307539
,89,0.090909091,1.646464646,55.39393939,6.353535354,10.15151515,14.72727273,1.168122329,,3.282828283,7.848484848,10.41414141,1.292929293,2.757575758,4.131313131,4.954545454,0.695003817,,8.262626263,10.71717172,6,8.326599328,0.920467667
,90,8.505050505,1.464646465,0.909090909,1.484848485,10.64646465,4.602020203,0.662948521,,4.575757576,16.93939394,27.90909091,25.09090909,0.757575758,5.909090909,13.53030303,1.131307523,,18.21212121,8.282828283,1.535353535,9.343434343,0.970506538
,91,2.363636364,17.78787879,61.64646465,32.72727273,13.80808081,25.66666667,1.40936947,,29.16161616,8.797979798,7.212121212,12.03030303,1.424242424,24.3030303,13.82154882,1.140556712,,82.22222222,8.727272727,2.121212121,31.02356902,1.491691759
,92,5.272727273,8.616161616,27.05050505,12.56565657,2.434343434,11.18787879,1.048747753,,41,11.24242424,0.414141414,19.04040404,2.747474747,4.545454545,13.16498316,1.119420308,,3.151515152,2.868686869,2.141414141,2.720538721,0.434654912
,93,13.03030303,0.272727273,3.444444444,8.383838384,2.484848485,5.523232323,0.742193311,,2.515151515,11.76767677,26.01010101,0.060606061,19,16.81818182,12.6952862,1.103642496,,17.82828283,5.919191919,8.292929293,10.68013468,1.028576729
,94,8.858585859,3.97979798,7.535353535,1.949494949,2.070707071,4.878787879,0.688311936,,0.474747475,2.323232323,6.95959596,2,4.696969697,0.858585859,2.885521886,0.460224373,,13.06060606,2.868686869,11.14141414,9.023569023,0.955378345
,95,1.323232323,6.050505051,3.737373737,2.282828283,8.484848485,4.375757576,0.641053253,,2.141414141,15.27272727,28.83838384,9.626262626,8.070707071,3.96969697,11.31986532,1.05384126,,3.050505051,6.242424242,1.272727273,3.521885522,0.546775235
,96,13.36363636,8.929292929,11.73737374,5.212121212,12.5959596,10.36767677,1.015681449,,35.06060606,7.232323232,4.515151515,9.656565657,8.242424242,6.232323232,11.82323232,1.072736223,,16.83838384,8.616161616,1.878787879,9.111111112,0.959571343
,97,5.323232323,6.151515152,25.93939394,6.858585859,73.85858586,23.62626263,1.373395027,,13.6969697,7.545454545,11.7979798,12.67676768,13.97979798,9.161616162,11.47643098,1.059806849,,8.98989899,2.777777778,1.01010101,4.259259259,0.629334076
,98,14.51515152,13.2020202,4.202020202,9.414141414,9.686868687,10.2040404,1.00877217,,15.35353535,3.444444444,21.51515152,7.202020202,39.72727273,8.171717172,15.9023569,1.201461496,,2.484848485,7.111111111,89.74747475,33.11447812,1.520017915
,99,3.060606061,1.181818182,16.91919192,1.404040404,4.696969697,5.452525253,0.736597686,,23.47474747,12.52525253,0.717171717,1.262626263,10.33333333,7.676767677,9.331649831,0.969958434,,15.21212121,6.02020202,18.90909091,13.38047138,1.126471413
,100,4.232323232,1.282828283,16,12.25252525,30.46464646,12.84646465,1.108783626,,25.41414141,2.646464646,38.6969697,14.97979798,10.32323232,0.202020202,15.37710438,1.186874562,,43.07070707,8.727272727,23.34343434,25.04713805,1.398758109
,101,8.565656566,2.898989899,4.646464646,1.767676768,6.454545455,4.866666667,0.687231601,,1.272727273,12.93939394,45.73737374,10.77777778,1.535353535,13.13131313,14.23232323,1.153275798,,5.737373737,0.404040404,10.52525253,5.555555557,0.744727495
,102,1.292929293,2.252525253,0.98989899,5.101010101,12,4.327272727,0.636214268,,9.323232323,9.575757576,30.32323232,2.02020202,6.838383838,10.12121212,11.36700337,1.055645989,,14.62626263,28.73737374,64.08080808,35.81481482,1.55406271
,103,25.73737374,5.878787879,18.62626263,2.414141414,19.64646465,14.46060606,1.160186495,,1.585858586,3.585858586,10.57575758,3.555555556,28.48484848,4.858585859,8.774410775,0.943217962,,1.808080808,0.666666667,16.36363636,6.279461278,0.797922387
,104,2.313131313,4.252525253,9.606060606,19,16.5959596,10.35353535,1.015088671,,0.565656566,11.90909091,5.595959596,1.858585859,5.656565657,49.84848485,12.57239057,1.099417864,,2.090909091,0.161616162,0.131313131,0.794612795,-0.099844446
,105,11.68686869,7.262626263,2.232323232,8.787878788,0.565656566,6.107070708,0.785832948,,9.828282828,4.505050505,10.87878788,1.282828283,4.97979798,7.333333333,6.468013468,0.810770916,,14.14141414,7.01010101,0.676767677,7.276094276,0.861898318
,106,5.737373737,5.909090909,1.050505051,3.626262626,2.535353535,3.771717172,0.576539119,,1.161616162,19.08080808,0.696969697,6.202020202,1.747474747,3.595959596,5.414141414,0.733529595,,35.68686869,4.757575758,0.070707071,13.50505051,1.130496213
,107,7.909090909,12.85858586,32.81818182,10.6969697,12.71717172,15.4,1.187520721,,0.666666667,3.97979798,1.666666667,9.656565657,3.878787879,50.51515152,11.72727273,1.069197025,,67,8.626262626,6.050505051,27.22558923,1.434977288
,108,7.121212121,8.464646465,4.939393939,1.535353535,9.606060606,6.333333333,0.801632346,,10.46464646,1.252525253,16.12121212,7.202020202,34.76767677,10.50505051,13.38552189,1.126635309,,6.909090909,4.232323232,18.33333333,9.824915824,0.992328838
,109,19.45454545,7.292929293,1.191919192,4.404040404,6.222222222,7.713131312,0.887230725,,8.818181818,6.575757576,0.424242424,7.121212121,29.95959596,11.72727273,10.77104377,1.032257791,,8.505050505,7.282828283,0.464646465,5.417508418,0.733799595
,110,7.424242424,7.565656566,5.262626263,9.616161616,2.373737374,6.448484849,0.809457684,,6.878787879,8.343434343,30.39393939,26.5959596,5.353535354,0.606060606,13.02861953,1.114898402,,19.98989899,14.01010101,24.76767677,19.58922559,1.292017268
,111,11.54545455,1.797979798,42.80808081,5.606060606,2.070707071,12.76565657,1.106043156,,5.818181818,0.323232323,8.95959596,9.050505051,0.111111111,50.60606061,12.47811448,1.096148966,,13.87878788,2.868686869,23.43434343,13.39393939,1.126908329
,112,0.414141414,1.565656566,30.16161616,6.303030303,12.73737374,10.23636364,1.010145705,,0.565656566,5.595959596,22.15151515,8.404040404,3.060606061,84.68686869,20.74410774,1.316894759,,1.727272727,12.37373737,13.37373737,9.158249156,0.961812455
,113,7.171717172,0.343434343,0.797979798,6.090909091,1.777777778,3.236363636,0.510057313,,6.393939394,3.707070707,6.292929293,6.717171717,48.72727273,31.5959596,17.23905724,1.236513512,,11.48484848,15.74747475,14.22222222,13.81818182,1.140450903
,114,13.17171717,1.232323232,12.13131313,3.272727273,7.090909091,7.379797979,0.868044473,,2.171717172,10.92929293,32.58585859,12.2020202,6.909090909,3.97979798,11.46296296,1.059296889,,14.43434343,5.727272727,25.48484848,15.21548821,1.182285892
,115,21.41414141,7.484848485,13.7979798,11,1.515151515,11.04242424,1.043064428,,19.43434343,7.525252525,7.98989899,1.242424242,9.252525253,34.18181818,13.27104377,1.122905082,,2.757575758,7.919191919,5.565656566,5.414141414,0.733529595
,116,81.51515152,4.393939394,16.38383838,59.03030303,4.141414141,33.09292929,1.519735211,,15.90909091,13.75757576,7.666666667,1.808080808,11.42424242,2.797979798,8.893939394,0.949094166,,0.191919192,3.333333333,16.34343434,6.622895622,0.821047911
,117,1.03030303,24.08080808,14.95959596,14.52525253,8.98989899,12.71717172,1.104390536,,3.181818182,0.515151515,38.94949495,5.333333333,0.363636364,3.949494949,8.715488216,0.94029172,,29.85858586,10.27272727,72.14141414,37.42424242,1.573153018
,118,19.71717172,8.474747475,76.05050505,8.131313131,2.050505051,22.88484849,1.359548041,,14.18181818,0.666666667,25.76767677,6.898989899,9.070707071,7.202020202,10.63131313,1.02658691,,23.57575758,24.83838384,0.565656566,16.32659933,1.212895735
,119,8.292929293,6.616161616,15.5959596,7.585858586,20.03030303,11.62424243,1.065364659,,4.808080808,7.95959596,2.696969697,24.11111111,0.888888889,59.27272727,16.62289562,1.220706678,,31.3030303,11.21212121,2.292929293,14.93602693,1.174235088
,120,7.111111111,5.03030303,33.93939394,13.8989899,2.929292929,12.58181818,1.099743405,,2.797979798,2.96969697,5.303030303,7.404040404,6.868686869,10.47474747,5.969696969,0.775952286,,2.737373737,19.54545455,1.606060606,7.962962964,0.901074696
,121,9.292929293,32.43434343,37.65656566,49.60606061,16.11111111,29.02020202,1.462700431,,24.75757576,21.3030303,49.06060606,15.90909091,9.474747475,6.393939394,21.14983165,1.325306915,,8.484848485,3.121212121,7.01010101,6.205387205,0.792768886
,122,7.686868687,0.161616162,6.939393939,5.505050505,8.858585859,5.83030303,0.765691128,,4.060606061,0.02020202,2.848484848,7.727272727,21.6969697,12.63636364,8.164983166,0.911955294,,11.86868687,21.28282828,4.191919192,12.44781145,1.095093001
,123,19.01010101,1.01010101,15.66666667,6.171717172,11.74747475,10.72121212,1.030243889,,1.666666667,1.555555556,9.060606061,3.333333333,18.75757576,10.21212121,7.430976431,0.871045884,,32.8989899,1.212121212,12.56565657,15.55892256,1.191979519
,124,4.949494949,2.464646465,23.05050505,7.04040404,2.727272727,8.046464646,0.905605107,,15.85858586,3.131313131,28.88888889,5.818181818,1.282828283,2.202020202,9.530303031,0.97910671,,8.909090909,11.83838384,18.39393939,13.04713805,1.115515258
,125,7.292929293,5.939393939,47.31313131,1.444444444,1.212121212,12.64040404,1.101760956,,9.383838384,24.98989899,29.88888889,8.222222222,1.545454545,19.13131313,15.52693603,1.191085764,,0.363636364,4.323232323,7.202020202,3.962962963,0.598020014
,126,11.15151515,14.25252525,7.343434343,0.747474747,2.313131313,7.161616161,0.855011041,,7.363636364,23.34343434,2.343434343,13.53535354,10.87878788,4.060606061,10.25420875,1.010902154,,2.292929293,13.56565657,21.42424242,12.42760943,1.094387596
,127,10.28282828,6.525252525,1.383838384,4.848484848,8.525252525,6.313131312,0.800244823,,1.545454545,3.848484848,49.84848485,1.696969697,3.545454545,49.88888889,18.3956229,1.264714498,,31.25252525,1.606060606,28.88888889,20.58249158,1.313497946
,128,7.474747475,7.222222222,5.212121212,0,1.696969697,4.321212121,0.635605586,,2.787878788,5.909090909,10.74747475,10.23232323,4.767676768,0.949494949,5.898989899,0.770777653,,65.26262626,2.04040404,33.22222222,33.50841751,1.525153918
,129,4.303030303,2.727272727,4.666666667,8.101010101,3.626262626,4.684848485,0.67069555,,1.797979798,3.515151515,11.64646465,5.02020202,12.03030303,39.72727273,12.28956229,1.089536415,,38.73737374,2.777777778,21.26262626,20.92592593,1.320684684
,130,17.77777778,6.646464646,16.23232323,5.101010101,3.696969697,9.890909091,0.99523621,,5.888888889,22.08080808,2.858585859,35.91919192,2.898989899,7.515151515,12.86026936,1.109250065,,7.02020202,11.66666667,8.838383838,9.175084176,0.962610057
,131,5.292929293,13.74747475,3.565656566,15.44444444,8.98989899,9.408080808,0.973501039,,1.404040404,3.555555556,1.161616162,3.01010101,28.66666667,24.88888889,10.44781145,1.019025326,,18.63636364,26.01010101,2.676767677,15.77441078,1.197953146
,132,16.91919192,7.252525253,11.33333333,8.555555556,7.191919192,10.25050505,1.010745264,,1.696969697,22.14141414,13.97979798,7.878787879,0.070707071,25.02020202,11.7979798,1.071807648,,0.585858586,2.767676768,48.76767677,17.37373737,1.239893252
,133,13.29292929,5.404040404,3.141414141,12.2020202,15.11111111,9.830303029,0.992566906,,0.939393939,6.767676768,10.34343434,13.03030303,24.56565657,1.646464646,9.548821549,0.979949777,,10.18181818,2.98989899,22.05050505,11.74074074,1.069695498
,134,15.26262626,4.181818182,12.2020202,6.757575758,16.16161616,10.91313131,1.037949381,,5.242424242,7.090909091,14.83838384,2.01010101,2.121212121,12.4040404,7.284511784,0.86240045,,49.05050505,1.242424242,12.2020202,20.83164983,1.318723667
,135,0.282828283,13.26262626,2.050505051,0.949494949,5.202020202,4.349494949,0.638438831,,3.131313131,6.141414141,1.262626263,2.707070707,22.46464646,72.14141414,17.97474747,1.254662798,,22.22222222,14.77777778,3.121212121,13.37373737,1.12625279
,136,1.606060606,4.111111111,7.98989899,12.17171717,7.757575758,6.727272727,0.827839035,,1.02020202,3.717171717,16,4.777777778,9.747474747,84.55555556,19.96969697,1.300371475,,3.909090909,24.29292929,1.121212121,9.774410773,0.990090586
,137,2.565656566,2.494949495,7.848484848,4.929292929,13.91919192,6.351515152,0.802877338,,5.737373737,2.808080808,13.54545455,32.03030303,4.252525253,60.38383838,19.79292929,1.296510073,,7.585858586,17.71717172,7.303030303,10.86868687,1.036177077
,138,12.34343434,18.76767677,6.141414141,21.33333333,4.535353535,12.62424242,1.101205326,,2.01010101,3.222222222,1.373737374,17.96969697,4.818181818,22.80808081,8.700336701,0.93953606,,14.04040404,1.858585859,7.232323232,7.71043771,0.887079033
,139,18.72727273,4.262626263,1.434343434,9.838383838,1,7.052525253,0.84834465,,7.535353535,4.545454545,7.575757576,1.141414141,23.63636364,18.51515152,10.49158249,1.020841,,15.45454545,2.555555556,72.28282828,30.0976431,1.478532488
,140,15.86868687,1.252525253,3.757575758,12.57575758,6.292929293,7.949494951,0.900339538,,6.717171717,9.686868687,13.67676768,6.222222222,12.70707071,2.797979798,8.634680136,0.936246254,,7.101010101,5.303030303,66.53535354,26.31313131,1.420172533
,141,6.505050505,2.454545455,26.03030303,2.545454545,2.111111111,7.929292929,0.899234462,,10.37373737,1.767676768,1.505050505,6.828282828,0.181818182,5.252525253,4.318181818,0.635300924,,18.39393939,4.848484848,6.767676768,10.003367,1.000146202
,142,0.494949495,3.444444444,0.858585859,0.97979798,2.696969697,1.694949495,0.229156762,,8.303030303,3.101010101,4.646464646,18.52525253,2.080808081,8.626262626,7.547138048,0.877782294,,13.32323232,16.66666667,5.404040404,11.7979798,1.071807648
,143,15.67676768,1.323232323,10.35353535,4.02020202,0.555555556,6.385858586,0.805219297,,10.6969697,13.61616162,0.03030303,1.606060606,2.525252525,5.808080808,5.713804715,0.756925393,,1.757575758,14.36363636,21.47474747,12.53198653,1.098019919
,144,0.474747475,5.171717172,14.47474747,3.767676768,3.050505051,5.387878787,0.731417817,,4.303030303,4.060606061,20.54545455,3.121212121,2.898989899,9.01010101,7.323232324,0.864702812,,16.18181818,1.02020202,53.82828283,23.67676768,1.374322413
,145,24.94949495,9.01010101,9.191919192,12,2.232323232,11.47676768,1.05981959,,9.414141414,13.24242424,9.636363636,4.101010101,86.83838384,13.21212121,22.74074074,1.356804607,,19.05050505,1.161616162,33.8989899,18.03703704,1.256165197
,146,75.43434343,14.54545455,2.262626263,4.717171717,0.191919192,19.43030303,1.288479574,,27.78787879,16.92929293,16.23232323,8.97979798,4.575757576,14.6969697,14.86700337,1.17222344,,12.35353535,12.44444444,11.44444444,12.08080808,1.082095985
,147,9.171717172,3.202020202,3.606060606,11.34343434,0.181818182,5.5010101,0.740442442,,2.444444444,10,4.545454545,6.141414141,22.42424242,0.535353535,7.681818181,0.885464024,,8.434343434,5.363636364,51.07070707,21.62289562,1.334913852
,148,4.585858586,19.1010101,15.24242424,7.333333333,16.36363636,12.52525252,1.097786491,,0.313131313,2.333333333,3.555555556,2.424242424,0.686868687,86.12121212,15.90572391,1.20155344,,14.11111111,6.575757576,75.29292929,31.99326599,1.505058577
,149,2.858585859,9,14.50505051,3.222222222,4.141414141,6.745454546,0.82901122,,29.37373737,9.96969697,14.24242424,7.454545455,14.27272727,14.58585859,14.98316498,1.175603562,,3.767676768,3.98989899,1.878787879,3.212121212,0.506791925
,150,22.51515152,33.05050505,3.191919192,7.202020202,12.39393939,15.67070707,1.195088593,,2.767676768,4.808080808,12.27272727,5.01010101,11.84848485,71.41414141,18.02020202,1.255759655,,0.535353535,11.45454545,1.555555556,4.515151514,0.654672328
,151,,80.47474747,3.848484848,21.67676768,3.454545455,27.36363636,1.43717381,,7.656565657,17.60606061,1.787878788,22.14141414,9.949494949,59.55555556,19.78282828,1.296288381,,60.3030303,2.262626263,15.62626263,26.06397306,1.416040618
,152,,3.696969697,2.252525253,3.070707071,3.222222222,3.060606061,0.485807434,,6.727272727,1.474747475,7.111111111,13.35353535,2.565656566,2.292929293,5.587542087,0.747220807,,25.90909091,18.13131313,27.64646465,23.8956229,1.378318356
,153,,7.515151515,9.96969697,3.939393939,11.64646465,8.267676769,0.917383489,,5.676767677,11.6969697,26.85858586,9.666666667,0.161616162,22.4040404,12.74410774,1.105309434,,27.52525253,18.34343434,14.80808081,20.22558923,1.305901183
,154,,6.555555556,3.505050505,3.666666667,4.525252525,4.563131313,0.659262967,,2.121212121,2.363636364,3.494949495,9.575757576,2.656565657,9.474747475,4.947811448,0.694413141,,24.88888889,2.828282828,13.83838384,13.85185185,1.141507838
,155,,3.484848485,11.75757576,16.23232323,2.060606061,8.383838384,0.923442898,,10.01010101,3.606060606,11.58585859,26.43434343,9.878787879,7.080808081,11.43265993,1.058147285,,3.02020202,32.84848485,0.464646465,12.11111111,1.083183988
,156,,11.03030303,0.444444444,1.363636364,9.353535354,5.547979798,0.744134871,,4.898989899,24.14141414,7.98989899,11.25252525,13.02020202,89.11111111,25.06902357,1.399137419,,5.161616162,11.80808081,12.98989899,9.986531987,0.999414697
,157,,3.97979798,4.606060606,0.434343434,2.212121212,2.808080808,0.448409601,,1,21,16.61616162,17.73737374,1.919191919,15.6969697,12.32828283,1.090902589,,11.3030303,9.616161616,60.94949495,27.28956229,1.43599657
,158,,4.848484848,6.484848485,0.818181818,6.656565657,4.702020202,0.672284491,,0.171717172,10.08080808,1.333333333,24.5959596,9.636363636,57.62626263,17.24074074,1.236555921,,0.797979798,9.828282828,8.707070707,6.444444444,0.809185484
,159,,3.535353535,26.71717172,0.353535354,2.656565657,8.315656567,0.919896545,,7.303030303,1.323232323,17.58585859,0.04040404,1.484848485,13.27272727,6.835016835,0.834739589,,5.272727273,7.444444444,29.3030303,14.00673401,1.146336881
,160,,21.98989899,1.181818182,3.323232323,21.02020202,11.87878788,1.074772127,,0.686868687,0.777777778,15.60606061,4.282828283,4.393939394,30.82828283,9.42929293,0.974479128,,5.353535354,2.060606061,6.151515152,4.521885522,0.655319563
,161,,1.535353535,7.141414141,14.81818182,13.09090909,9.146464647,0.96125326,,10.91919192,2.252525253,10.39393939,3.585858586,2.444444444,85.52525253,19.18686869,1.283004103,,0.616161616,8.333333333,7.606060606,5.518518518,0.741822504
,162,,13.80808081,20.09090909,3.929292929,8.171717172,11.5,1.06069784,,2.757575758,8.555555556,19.2020202,48.47474747,0.585858586,81.02020202,26.76599327,1.427583364,,8.919191919,4.838383838,27.13131313,13.62962963,1.134484055
,163,,15.05050505,17.45454545,82,13.01010101,31.87878788,1.5035018,,7.828282828,5.262626263,7.050505051,9.363636364,9.585858586,10.43434343,8.254208754,0.916675448,,4.919191919,0.01010101,10.87878788,5.26936027,0.721757893
,164,,1.03030303,16.32323232,0.525252525,4.393939394,5.568181817,0.745713408,,19.06060606,7.272727273,1.737373737,3,9.171717172,75.81818182,19.34343434,1.286533584,,19.34343434,5.353535354,0.555555556,8.417508417,0.925183559
,165,,7.787878788,1.333333333,5.272727273,2.949494949,4.335858586,0.637075109,,4.868686869,1.787878788,3.737373737,8.101010101,3.161616162,80.31313131,16.99494949,1.230319878,,18.94949495,14.16161616,2.606060606,11.90572391,1.075755807
,166,,5.515151515,4.707070707,4.404040404,8.313131313,5.734848485,0.758521948,,18.18181818,4.232323232,0.737373737,16.61616162,0.787878788,6.868686869,7.904040404,0.897849152,,4.272727273,33.35353535,21.98989899,19.87205387,1.298242756
,167,,8.858585859,12.50505051,8.616161616,3.787878788,8.441919193,0.926441191,,5.686868687,1.191919192,18,42.52525253,14.17171717,5.848484848,14.57070707,1.163480627,,4.656565657,20.66666667,6.949494949,10.75757576,1.031714413
,168,,19.8989899,5,0.282828283,5.898989899,7.770202021,0.89043231,,14.74747475,6.292929293,0.95959596,35.73737374,13.19191919,3.777777778,12.45117845,1.095210457,,20.41414141,11.64646465,18.5959596,16.88552189,1.227514488
,169,,3.505050505,5.494949495,6.575757576,5,5.143939394,0.711295843,,10.76767677,4.464646465,12.55555556,13.05050505,11.17171717,3.98989899,9.333333334,0.970036777,,7.929292929,9.050505051,1.101010101,6.026936027,0.780096582
,170,,15.75757576,4.171717172,4.818181818,0.494949495,6.310606061,0.80007107,,7.484848485,1.909090909,1.707070707,4.363636364,12.14141414,0.757575758,4.727272727,0.674610658,,0.090909091,2.383838384,7.404040404,3.292929293,0.517582405
,171,,1.333333333,9.01010101,6.454545455,0.636363636,4.358585859,0.639345605,,1.303030303,0.98989899,4.616161616,34.60606061,16.14141414,3.434343434,10.18181818,1.007825337,,22.68686869,6.525252525,10.32323232,13.17845118,1.119864372
,172,,6.575757576,67.93939394,1.151515152,13.77777778,22.36111111,1.34949338,,10.74747475,2.636363636,6.333333333,8.404040404,41.16161616,8.090909091,12.8956229,1.110442325,,3.555555556,1.949494949,12.56565657,6.023569025,0.779853891
,173,,7.03030303,3.757575758,0.95959596,0.292929293,3.01010101,0.47858107,,2.262626263,7.464646465,10.76767677,28.48484848,1.696969697,9.747474747,10.07070707,1.003059964,,20.09090909,8.565656566,3.171717172,10.60942761,1.025691954
,174,,9.060606061,1.191919192,0.232323232,8.414141414,4.724747475,0.674378602,,6.666666667,1.858585859,11.53535354,5.686868687,9.535353535,4.868686869,6.691919193,0.825550688,,2.757575758,8.212121212,21.96969697,10.97979798,1.040594349
,175,,5.545454545,8.616161616,12.32323232,7.090909091,8.393939393,0.923965829,,0.161616162,5.535353535,17.46464646,13.43434343,21.76767677,15.11111111,12.24579124,1.087986852,,4.313131313,3.717171717,2.464646465,3.498316498,0.543859098
,176,,3.505050505,6.838383838,9.474747475,5.303030303,6.28030303,0.797980599,,9.676767677,13.80808081,11.7979798,10.43434343,5.686868687,2.222222222,8.937710438,0.95122628,,3.404040404,5.373737374,10.81818182,6.531986533,0.815045281
,177,,9.383838384,1.070707071,39.84848485,9.606060606,14.97727273,1.175432738,,2.757575758,2.96969697,22.74747475,2.777777778,11.03030303,6.585858586,8.144781145,0.910879419,,4.101010101,17.04040404,16.51515152,12.55218855,1.098719454
,178,,3.141414141,8.383838384,3.474747475,16.18181818,7.795454545,0.891841444,,19.63636364,0.373737374,6.838383838,12.84848485,6.929292929,4.545454545,8.528619529,0.93087874,,6.02020202,13.90909091,2.484848485,7.471380472,0.873400853
,179,,2.636363636,1.727272727,0.282828283,7.818181818,3.116161616,0.493619974,,2.939393939,2.787878788,8.595959596,15.39393939,2.868686869,2.303030303,5.814814814,0.764535888,,6.464646465,10.03030303,23.81818182,13.43771044,1.128325279
,180,,17.14141414,7.080808081,2.212121212,6.616161616,8.262626262,0.917118109,,3,5.323232323,3.797979798,14.81818182,5.060606061,15.58585859,7.930976432,0.899326659,,15.57575758,9.757575758,67.28282828,30.87205387,1.489565523
